Tidy word vectors
…
## Warning: Calling `as_tibble()` on a vector is discouraged, because the behavior is likely to change in the future. Use `enframe(name = NULL)` instead.
## This warning is displayed once per session.

Unigram probabilities

library(tidytext)

unigram_probs <- hacker_news_text %>%
    unnest_tokens(word, text) %>%
    count(word, sort = TRUE) %>%
    mutate(p = n / sum(n))

unigram_probs

## # A tibble: 17,222 x 3
##    word      n      p
##    <chr> <int>  <dbl>
##  1 to    24846 0.0406
##  2 the   19838 0.0324
##  3 i     15866 0.0259
##  4 more  12505 0.0204
##  5 and   12084 0.0197
##  6 a     10845 0.0177
##  7 of     9432 0.0154
##  8 for    7166 0.0117
##  9 be     7148 0.0117
## 10 not    7034 0.0115
## #  with 17,212 more rows

Skipgram probabilities

library(widyr)

tidy_skipgrams <- hacker_news_text %>%
    unnest_tokens(ngram, text, token = "ngrams", n = 8) %>%
    mutate(ngramID = row_number()) %>% 
    unite(skipgramID, postID, ngramID) %>%
    unnest_tokens(word, ngram) %>% 
  filter(!is.na(word))

tidy_skipgrams

## # A tibble: 2,678,648 x 2
##    skipgramID word   
##    <chr>      <chr>  
##  1 2_2        provide
##  2 2_2        gym    
##  3 2_2        staff  
##  4 2_2        to     
##  5 2_2        get    
##  6 2_2        gym    
##  7 2_2        up     
##  8 2_2        and    
##  9 2_3        gym    
## 10 2_3        staff  
## #  with 2,678,638 more rows
…
What are the words most associated with staff in the data?

normalized_prob %>% 
    filter(word1 == "staff") %>%
    arrange(-p_together)

## # A tibble: 539 x 7
##    word1 word2          n          p      p1        p2 p_together
##    <chr> <chr>      <dbl>      <dbl>   <dbl>     <dbl>      <dbl>
##  1 staff staff      13620 0.000666   0.00650 0.00650        15.8 
##  2 staff shortages     91 0.00000445 0.00650 0.0000457      15.0 
##  3 staff shortage      67 0.00000328 0.00650 0.0000408      12.4 
##  4 staff member       305 0.0000149  0.00650 0.000188       12.2 
##  5 staff bank         114 0.00000558 0.00650 0.0000800      10.7 
##  6 staff bully         32 0.00000157 0.00650 0.0000229      10.5 
##  7 staff facilitate    30 0.00000147 0.00650 0.0000229       9.88
##  8 staff nursing      301 0.0000147  0.00650 0.000230        9.84
##  9 staff shouting      27 0.00000132 0.00650 0.0000212       9.58
## 10 staff members      234 0.0000114  0.00650 0.000202        8.70
## #  with 529 more rows

What about access?

normalized_prob %>% 
    filter(word1 == "access") %>%
    arrange(-p_together)

## # A tibble: 114 x 7
##    word1  word2         n          p       p1        p2 p_together
##    <chr>  <chr>     <dbl>      <dbl>    <dbl>     <dbl>      <dbl>
##  1 access access     1932 0.0000945  0.000880 0.000880       122. 
##  2 access gain         26 0.00000127 0.000880 0.0000604       23.9
##  3 access internet     21 0.00000103 0.000880 0.0000539       21.7
##  4 access single       43 0.00000210 0.000880 0.000119        20.1
##  5 access direct       32 0.00000157 0.000880 0.000132        13.4
##  6 access therapies    28 0.00000137 0.000880 0.000122        12.7
##  7 access camhs        28 0.00000137 0.000880 0.000122        12.7
##  8 access easier       92 0.00000450 0.000880 0.000415        12.3
##  9 access point        65 0.00000318 0.000880 0.000305        11.8
## 10 access greater      21 0.00000103 0.000880 0.0000996       11.7
## #  with 104 more rows
…
    similarities <- word_vectors %*% selected_vector %>%
        tidy() %>%
        as_tibble() %>%
        rename(token = .rownames,
               similarity = unrowname.x.)
    
    similarities %>%
        arrange(-similarity)    
}

staff <- search_synonyms(word_vectors, word_vectors["staff",])

staff

## # A tibble: 4,648 x 2
##    token      similarity
##    <chr>           <dbl>
##  1 staff          0.414 
##  2 patients       0.0688
##  3 shortages      0.0687
##  4 shortage       0.0652
##  5 shifts         0.0604
##  6 female         0.0589
##  7 shouting       0.0584
##  8 facilitate     0.0579
##  9 male           0.0574
## 10 bank           0.0572
## #  with 4,638 more rows

access <- search_synonyms(word_vectors, word_vectors["access",])

access

## # A tibble: 4,648 x 2
##    token     similarity
##    <chr>          <dbl>
##  1 access        0.239 
##  2 point         0.145 
##  3 single        0.120 
##  4 therapies     0.0958
##  5 gain          0.0942
##  6 direct        0.0672
##  7 internet      0.0632
##  8 via           0.0626
##  9 easier        0.0619
## 10 crisis        0.0581
## #  with 4,638 more rows
…
